{
  "recurringPossibilities": [
    "Sonntags, zeitgleich zum Gottesdienst",
    "Siehe Terminplan",
    "Nach Absprache",
    "Jeden Monat nach Vereinbarung",
    "Jeden 2. Dienstag im Monat, 15:00 Uhr",
    "Monatlich nach örtlicher Bekanntgabe",
    "Jeden 3. Dienstag im Monat, 15:00 Uhr",
    "Jeden Montag ab 20:00 Uhr",
    "Nach dem Sonntagsgottesdienst",
    "Montags, 19:45 Uhr",
    "Nach monatlichem Probenplan",
    "Einmal im Monat zeitgleich zum Gottesdienst",
    "Nach Vereinbarung",
    "Probe nach Vereinbarung",
    "Jeden 2. Sonntag im Monat nach dem Gottesdienst"
  ]
}