[
  {
    "headline": "Neuer Monat",
    "subHeadline": "Erstellt eine neue Ausgabe",
    "text": "Hier wird eine neue Ausgabe, ein neuer Monat erstellt. Es gibt die Möglichkeit der direkten Auswahl von Bezirk und Gemeinden oder es nur auf bestimmte Gemeinden des Bezirks zu beschränken",
    "module": "gcompNewMonth",
    "enabled": true
  },
  {
    "headline": "Inhaltsverwaltung",
    "subHeadline": "Was erscheint in welcher Ausgabe",
    "text": "Hier kann verwaltet werden, welche Ausgabe welchen Inhalt enthält. Dieses geschieht auf Gemeinde- sowie auf Bezirksebene. Die Ausgabe erfolgt in Scribus-Dokumenten",
    "module": "gcompContent",
    "enabled": true
  },
  {
    "headline": "Inhaltskonfiguration",
    "subHeadline": "Einstellungen für die Inhaltsverwaltung",
    "text": "Fehlt noch",
    "module": "gcompcContentConfiguration",
    "enabled": true
  },
  {
    "headline": "SW",
    "subHeadline": "Schwarz-Weiß-Ausgabe",
    "text": "Fehlt noch",
    "module": "gcompBW",
    "enabled": true
  },
  {
    "headline": "Freigabeversion",
    "subHeadline": "Version für die Freigabe",
    "text": "Erstellt die beiden Versionen, welche in die finale Kontrolle gehen und für welche die allgemeine Freigabe zur Veröffentlichung gegeben wird.",
    "module": "newMonth",
    "enabled": true
  },
  {
    "headline": "Drucken",
    "subHeadline": "Erzeugung der Druckausgaben",
    "text": "Erstellt die digitale Version mit der Möglichkeit der Komprimierung ebenso wie die SW-Version, welche für den Druck richtig angeordnet wird",
    "module": "gcompPrint",
    "enabled": true
  },
  {
    "headline": "Hochladen",
    "subHeadline": "Lädt die fertigen Versionen hoch",
    "text": "Funktion funktioniert noch nicht!",
    "module": "newMonth",
    "enabled": false
  },
  {
    "headline": "Versenden",
    "subHeadline": "E-Mails",
    "text": "Versendet die E-Mails mit den Informationen über die neue Ausgabe und den Ort der Lagerung an die Gemeindebeauftragten",
    "module": "gcompSendMails",
    "enabled": true
  },
  {
    "headline": "Anwendungskonfiguration",
    "subHeadline": "Einstellungen für die Anwendung",
    "text": "Alles, was mit der Anwendung und den zugehörigen Einstellungen zu tun hat",
    "module": "gcompAppConfiguration",
    "enabled": true
  }
]
