{
  "type": "element",
  "name": "PAGEOBJECT",
  "attributes": {
    "XPOS": "128.346456692913",
    "YPOS": "182.92125984252",
    "OwnPage": "0",
    "ItemID": "161679952",
    "PTYPE": "2",
    "WIDTH": "362.834645669291",
    "HEIGHT": "283.464566929134",
    "FRTYPE": "0",
    "CLIPEDIT": "0",
    "PWIDTH": "1",
    "PLINEART": "3",
    "ANNAME": "Gr_Titelseite_Gemeindebild",
    "LOCALSCX": "0.2812",
    "LOCALSCY": "0.2812",
    "LOCALX": "-133.315039034061",
    "LOCALY": "-8.89046941678521",
    "LOCALROT": "0",
    "PICART": "1",
    "SCALETYPE": "1",
    "RATIO": "1",
    "Pagenumber": "0",
    "PFILE": "L:/GB/Bilder/Kirchen/Kirche_Winsen_HQ.tif",
    "IRENDER": "0",
    "EMBEDDED": "0",
    "path": "M0 0 L362.835 0 L362.835 283.465 L0 283.465 L0 0 Z",
    "copath": "M0 0 L362.835 0 L362.835 283.465 L0 283.465 L0 0 Z",
    "gXpos": "128.346456692913",
    "gYpos": "-452.354330708661",
    "gWidth": "0",
    "gHeight": "0",
    "LAYER": "0",
    "NEXTITEM": "-1",
    "BACKITEM": "-1",
    "PRFILE": "Embedded ISO Coated v2 3 (ECI)",
    "EPROF": "Embedded ISO Coated v2 3 (ECI)"
  }
}